{
    "KPlugin": {
        "Authors": [
            {
                "Email": "plasma-devel@kde.org",
                "Name": "The Plasma Team",
                "Name[az]": "Plasma komandası",
                "Name[ca]": "L'equip del Plasma",
                "Name[cs]": "Team Plasma",
                "Name[de]": "Das Plasma-Team",
                "Name[en_GB]": "The Plasma Team",
                "Name[es]": "El equipo de Plasma",
                "Name[eu]": "Plasma taldea",
                "Name[fi]": "Plasma-työryhmä",
                "Name[fr]": "L'équipe de Plasma",
                "Name[ia]": "Le equipa de Plasma",
                "Name[it]": "La squadra di Plasma",
                "Name[ko]": "Plasma 팀",
                "Name[lt]": "Plasma komanda",
                "Name[nl]": "Het team van Plasma",
                "Name[nn]": "Utviklingslaget for Plasma",
                "Name[pl]": "Zespół Plazmy",
                "Name[pt]": "A Equipa do Plasma",
                "Name[pt_BR]": "A equipe do Plasma",
                "Name[ro]": "Echipa Plasma",
                "Name[ru]": "Команда разработчиков Plasma",
                "Name[sk]": "Tím Plasma",
                "Name[sl]": "Ekipa Plasme",
                "Name[sv]": "Plasma-gruppen",
                "Name[uk]": "Команда розробників Плазми",
                "Name[vi]": "Đội ngũ Plasma",
                "Name[x-test]": "xxThe Plasma Teamxx",
                "Name[zh_CN]": "Plasma 开发团队"
            }
        ],
        "Category": "Language",
        "Description": "Look up the meaning of words and their translation into different languages",
        "Description[ar]": "انظر معاني الكلمات و ترجمتها بلغات مختلفة",
        "Description[az]": "Müxtəlif dillərdə sözlərin izahına və tərcüməsinə baxın",
        "Description[ca]": "Cerca el significat de paraules i la seva traducció en diferents idiomes",
        "Description[cs]": "Vyhledat význam slov a jejich překlad do různých jazyků",
        "Description[de]": "Die Bedeutung von Wörtern und ihre Übersetzung in verschiedene Sprachen nachschlagen",
        "Description[en_GB]": "Look up the meaning of words and their translation into different languages",
        "Description[es]": "Buscar el significado de palabras y su traducción a otros idiomas",
        "Description[eu]": "Bilatu hitzen esanahia eta beraien itzulpena hizkuntza ezberdinetan",
        "Description[fi]": "Tarkista sanojen merkitykset ja käännökset eri kielille",
        "Description[fr]": "Rechercher le sens des mots et leur traduction dans différentes langues.",
        "Description[ia]": "Cerca le signification de parolas  lor traduction in linguages differente",
        "Description[it]": "Cerca il significato delle parole e la loro traduzione in diverse lingue",
        "Description[ko]": "단어의 뜻을 찾고 다른 언어로 표시하기",
        "Description[lt]": "Žodžių reikšmių paieška ir jų vertimas į skirtingas kalbas",
        "Description[nl]": "Zoek de betekenis van woorden en hun vertaling in verschillende talen op",
        "Description[nn]": "Slå opp ordtydingar og omsetjingar",
        "Description[pl]": "Wyszukuje znaczeń wyrazów i ich tłumaczeń na inne języki",
        "Description[pt]": "Procurar o significado das palavras e a sua tradução para várias línguas",
        "Description[pt_BR]": "Procura o significado de palavras e a tradução para vários idiomas",
        "Description[ro]": "Caută semnificația cuvintelor și traducerea acestora în diferite limbi",
        "Description[ru]": "Поиск значений слов и их перевод на другие языки",
        "Description[sk]": "Vyhľadajte význam slov a ich preklad do rôznych jazykov",
        "Description[sl]": "Poišči pomen besed in njihove prevode v različne jezike",
        "Description[sv]": "Slå upp betydelsen hos ord och deras översättning till olika språk",
        "Description[uk]": "Погляньте на значення слів та на їхній переклад іншими мовами",
        "Description[vi]": "Tra nghĩa của các từ và phần dịch của chúng sang các ngôn ngữ khác nhau",
        "Description[x-test]": "xxLook up the meaning of words and their translation into different languagesxx",
        "Description[zh_CN]": "查阅单词词义以及其不同语言的翻译",
        "EnabledByDefault": true,
        "Icon": "accessories-dictionary",
        "Id": "org.kde.plasma_applet_dict",
        "License": "GPL-2.0+",
        "Name": "Dictionary",
        "Name[ar]": "قاموس",
        "Name[az]": "Lüğət",
        "Name[ca]": "Diccionari",
        "Name[cs]": "Slovník",
        "Name[de]": "Wörterbuch",
        "Name[en_GB]": "Dictionary",
        "Name[es]": "Diccionario",
        "Name[eu]": "Hiztegia",
        "Name[fi]": "Sanakirja",
        "Name[fr]": "Dictionnaire",
        "Name[ia]": "Dictionario",
        "Name[it]": "Dizionario",
        "Name[ko]": "사전",
        "Name[lt]": "Žodynas",
        "Name[nl]": "Woordenboek",
        "Name[nn]": "Ord­bok",
        "Name[pl]": "Słownik",
        "Name[pt]": "Dicionário",
        "Name[pt_BR]": "Dicionário",
        "Name[ro]": "Dicționar",
        "Name[ru]": "Словарь",
        "Name[sk]": "Slovník",
        "Name[sl]": "Slovar",
        "Name[sv]": "Ordlista",
        "Name[uk]": "Словник",
        "Name[vi]": "Từ điển",
        "Name[x-test]": "xxDictionaryxx",
        "Name[zh_CN]": "词典",
        "ServiceTypes": [
            "Plasma/Applet"
        ],
        "Version": "1.0",
        "Website": "https://kde.org/plasma-desktop/"
    },
    "X-Plasma-API": "declarativeappletscript",
    "X-Plasma-MainScript": "ui/main.qml"
}
