{
    "KPlugin": {
        "Authors": [
            {
                "Email": "nowrep@gmail.com",
                "Name": "David Rosca",
                "Name[ar]": "David Rosca",
                "Name[az]": "David Rosca",
                "Name[ca]": "David Rosca",
                "Name[cs]": "David Rosca",
                "Name[de]": "David Rosca",
                "Name[en_GB]": "David Rosca",
                "Name[es]": "David Rosca",
                "Name[eu]": "David Rosca",
                "Name[fi]": "David Rosca",
                "Name[fr]": "David Rosca",
                "Name[ia]": "David Rosca",
                "Name[it]": "David Rosca",
                "Name[ko]": "David Rosca",
                "Name[lt]": "David Rosca",
                "Name[nl]": "David Rosca",
                "Name[nn]": "David Rosca",
                "Name[pl]": "David Rosca",
                "Name[pt]": "David Rosca",
                "Name[pt_BR]": "David Rosca",
                "Name[ro]": "David Rosca",
                "Name[ru]": "David Rosca",
                "Name[sk]": "David Rosca",
                "Name[sl]": "David Rosca",
                "Name[sv]": "David Rosca",
                "Name[uk]": "David Rosca",
                "Name[vi]": "David Rosca",
                "Name[x-test]": "xxDavid Roscaxx",
                "Name[zh_CN]": "David Rosca"
            }
        ],
        "Category": "Application Launchers",
        "Description": "Launch your favourite Applications",
        "Description[az]": "Seçilmiş tətbiqlərinizi başladın",
        "Description[ca]": "Llança les vostres aplicacions preferides",
        "Description[cs]": "Spouštějte své oblíbené aplikace",
        "Description[de]": "Ermöglicht den Aufruf Ihrer Lieblingsprogramme",
        "Description[en_GB]": "Launch your favourite Applications",
        "Description[es]": "Lanzar sus aplicaciones favoritas",
        "Description[eu]": "Abiarazi zure aplikazio gogokoenak",
        "Description[fi]": "Käynnistä suosikkisovelluksesi",
        "Description[fr]": "Lancer vos applications préférées",
        "Description[ia]": "Lancea tu applicationes favorite",
        "Description[it]": "Avvia le tue applicazioni preferite",
        "Description[ko]": "즐겨 찾는 프로그램 실행",
        "Description[lt]": "Paleisti mėgstamas programas",
        "Description[nl]": "Uw favoriete programma's starten",
        "Description[nn]": "Start favoritt­programma dine",
        "Description[pl]": "Uruchamia ulubione programy",
        "Description[pt]": "Invocar as suas aplicações favoritas",
        "Description[pt_BR]": "Executa seus aplicativos favoritos",
        "Description[ro]": "Lansați aplicații preferate",
        "Description[ru]": "Быстрый запуск избранных приложений",
        "Description[sk]": "Spustite svoje obľúbené aplikácie",
        "Description[sl]": "Zaženi vaše priljubljene aplikacije",
        "Description[sv]": "Start dina favoritprogram",
        "Description[uk]": "Запуск ваших улюблених програм",
        "Description[vi]": "Khởi chạy các ứng dụng bạn ưa thích",
        "Description[x-test]": "xxLaunch your favourite Applicationsxx",
        "Description[zh_CN]": "启动您最常用的程序",
        "EnabledByDefault": true,
        "FormFactors": [
            "desktop"
        ],
        "Icon": "fork",
        "Id": "org.kde.plasma.quicklaunch",
        "License": "GPL-2.0+",
        "Name": "Quicklaunch",
        "Name[ar]": "الإطلاق السّريع",
        "Name[az]": "Sürətli başlatmaq",
        "Name[ca]": "Quicklaunch",
        "Name[cs]": "Rychlé spuštění",
        "Name[de]": "Schnellstarter",
        "Name[en_GB]": "Quicklaunch",
        "Name[es]": "Lanzamiento rápido",
        "Name[eu]": "Quicklaunch",
        "Name[fi]": "Pikakäynnistin",
        "Name[fr]": "Lancement rapide",
        "Name[ia]": "Quicklaunch (lancea rapidemente)",
        "Name[it]": "Avvio rapido",
        "Name[ko]": "빠른 실행",
        "Name[lt]": "Spartusis paleidimas",
        "Name[nl]": "Snelstarten",
        "Name[nn]": "Snøgg­startar",
        "Name[pl]": "Szybkie uruchamianie",
        "Name[pt]": "Lançador Rápido",
        "Name[pt_BR]": "Lançamento rápido",
        "Name[ro]": "Lansare rapidă",
        "Name[ru]": "Панель запуска",
        "Name[sk]": "Rýchle spustenie",
        "Name[sl]": "Quicklaunch",
        "Name[sv]": "Snabbstart",
        "Name[uk]": "Швидкий запуск",
        "Name[vi]": "Khởi chạy nhanh",
        "Name[x-test]": "xxQuicklaunchxx",
        "Name[zh_CN]": "快速启动",
        "ServiceTypes": [
            "Plasma/Applet"
        ],
        "Version": "1.0.0",
        "Website": "https://kde.org/plasma-desktop/"
    },
    "X-Plasma-API": "declarativeappletscript",
    "X-Plasma-MainScript": "ui/main.qml"
}
